qpToolkit Examples for nm_xxx Functions • qpToolkit
…
nm.insert.evid2amt0

example("nm.insert.evid2amt0")

## 
## nm..20> library(dplyr)
## 
## nm..20> nmData = example.NONMEM.dataset(TIME = seq(0,24,4))
## 
## nm..20> nmData2 = nm.insert.evid2amt0(data = nmData, ID, TIME, -EVID)
## 
## nm..20> tbl_df(nmData2[, c('ID','TIME','EVID','AMT','DV')])
## # A tibble: 81 x 5
##       ID  TIME  EVID   AMT    DV
##    <int> <dbl> <dbl> <dbl> <dbl>
##  1     1     0     2     0     0
##  2     1     0     1     1     0
##  3     1     0     0     0     0
##  4     1     4     0     0     0
##  5     1     8     0     0     0
##  6     1    12     0     0     0
##  7     1    16     0     0     0
##  8     1    20     0     0     0
##  9     1    24     0     0     0
## 10     2     0     2     0     0
## # … with 71 more rows
…
## 
## nm....> ## original data:
## nm....> nmData = example.NONMEM.dataset(TIME = seq(0,24,4))
## 
## nm....> nmData$CMT = with(nmData, swap(EVID, 0:1, 2:1))
## 
## nm....> ## adding doses to compartments 3, 4 and 5
## nm....> nmData3 = nm.insert.dose.multiple.compartments(data = nmData
## nm....+                                                , dose.in.cmt = c(3,4,5)
## nm....+                                                , ID, TIME, -EVID
## nm....+ 
## nm....+ )
## 
## nm....> tbl_df(nmData3[, c('ID','TIME','EVID','AMT','CMT','DV')])
## # A tibble: 99 x 6
##       ID  TIME  EVID   AMT   CMT    DV
##    <int> <dbl> <dbl> <dbl> <dbl> <dbl>
##  1     1     0     1     1     1     0
##  2     1     0     1     1     3     0
##  3     1     0     1     1     4     0
##  4     1     0     1     1     5     0
##  5     1     0     0     0     2     0
##  6     1     4     0     0     2     0
##  7     1     8     0     0     2     0
##  8     1    12     0     0     2     0
##  9     1    16     0     0     2     0
## 10     1    20     0     0     2     0
## # … with 89 more rows
…
